{
  "TCC" : {
    "12339392224443111111344" : "[\"Jéssica \",\"jessicamerencio@gmail\",\"12339392224443111111344\",\"1234\",\"1234\"]",
    "1718181818181818181881188181" : "[\"Jéssica \",\"jessicamerencio@gmail\",\"1718181818181818181881188181\",\"1234\",\"1234\"]"
  },
  "valor" : 1
}
